<?xml version="1.0" standalone="no"?>
<!DOCTYPE svg PUBLIC "-//W3C//DTD SVG 20010904//EN"
 "http://www.w3.org/TR/2001/REC-SVG-20010904/DTD/svg10.dtd">
<svg version="1.0" xmlns="http://www.w3.org/2000/svg"
 width="1280.000000pt" height="1280.000000pt" viewBox="0 0 1280.000000 1280.000000"
 preserveAspectRatio="xMidYMid meet">
<metadata>
Created by potrace 1.16, written by Peter Selinger 2001-2019
</metadata>
<g transform="translate(0.000000,1280.000000) scale(0.100000,-0.100000)"
fill="#000000" stroke="none">
<path d="M9657 7622 c-100 -100 -266 -264 -369 -365 l-188 -183 0 -192 c0
-125 4 -200 12 -217 13 -29 -3 -58 -22 -39 -12 12 -57 7 -250 -25 -74 -13
-182 -31 -240 -40 -101 -17 -105 -19 -108 -44 -2 -16 2 -29 10 -32 7 -3 83 2
168 10 85 9 209 21 276 28 69 7 128 18 137 25 9 8 22 10 28 6 7 -4 31 -7 53
-6 38 2 47 -3 124 -74 45 -42 82 -81 82 -87 0 -7 -37 -45 -81 -86 -79 -72 -81
-73 -124 -68 -55 6 -70 -8 -61 -60 4 -21 6 -45 5 -53 -1 -8 -3 -295 -5 -637
l-4 -623 380 0 380 0 0 545 0 545 610 0 610 0 0 -545 0 -545 365 0 365 0 0
1470 0 1470 -365 0 -365 0 0 -550 0 -550 -610 0 -610 0 0 544 c0 379 -3 547
-11 551 -6 4 -90 -72 -192 -173z"/>
<path d="M7855 7778 c-7 -25 -15 -85 -30 -223 -8 -77 -19 -173 -25 -213 -5
-40 -10 -93 -10 -117 0 -39 3 -43 28 -48 15 -3 29 -3 31 -1 5 4 20 84 57 294
14 80 32 179 39 220 10 52 10 78 3 87 -14 17 -87 17 -93 1z"/>
<path d="M7465 7752 c-9 -25 -5 -65 25 -252 56 -340 52 -325 84 -323 16 1 30
4 33 6 2 3 -3 76 -12 163 -9 88 -21 213 -28 279 -7 66 -16 126 -20 132 -10 17
-75 12 -82 -5z"/>
<path d="M8000 7764 c0 -3 12 -21 26 -39 30 -40 34 -15 -51 -335 -68 -259 -70
-229 23 -267 43 -18 83 -33 88 -33 6 0 73 104 150 232 l139 232 54 11 c30 5
56 15 58 21 4 12 -230 134 -255 134 -8 0 -28 6 -45 14 -55 25 -187 46 -187 30z"/>
<path d="M7308 7713 c-10 -2 -18 -9 -18 -14 0 -5 -8 -9 -17 -9 -26 -1 -149
-65 -215 -112 -10 -7 -18 -19 -18 -28 1 -8 59 -114 130 -235 111 -189 132
-220 152 -219 34 3 158 56 158 69 0 6 -11 55 -26 110 -77 304 -104 416 -102
427 3 13 -17 18 -44 11z"/>
<path d="M8508 7548 c-32 -26 -356 -491 -351 -504 5 -13 51 -31 57 -23 1 2 82
104 179 226 96 122 182 230 189 242 11 17 9 24 -12 46 -26 28 -39 31 -62 13z"/>
<path d="M6903 7461 c-13 -11 -23 -28 -23 -38 0 -14 260 -356 310 -406 12 -13
50 11 50 32 0 10 -33 65 -73 122 -41 57 -105 149 -143 204 -39 55 -76 101 -84
102 -8 2 -25 -6 -37 -16z"/>
<path d="M8744 7227 c-29 -23 -133 -107 -233 -186 -99 -80 -181 -150 -181
-156 0 -6 6 -20 14 -31 18 -24 9 -29 243 136 97 69 199 141 227 161 56 39 68
69 40 100 -26 29 -54 23 -110 -24z"/>
<path d="M6658 7168 c-19 -24 -22 -37 -10 -54 4 -6 79 -62 167 -124 88 -63
173 -124 189 -137 27 -23 29 -23 48 -6 10 9 18 24 16 33 -3 18 -363 310 -382
310 -6 0 -19 -10 -28 -22z"/>
<path d="M8887 7153 c-4 -3 -7 -23 -7 -43 0 -43 -11 -55 -95 -103 -155 -88
-361 -210 -372 -221 -10 -9 -6 -28 22 -91 19 -44 39 -81 45 -83 9 -3 94 15
205 44 310 81 325 83 345 59 16 -19 50 -20 50 0 0 23 -20 118 -30 140 -5 11
-12 31 -15 45 -9 33 -29 78 -78 178 -37 76 -53 93 -70 75z"/>
<path d="M6580 7012 c-8 -4 -17 -18 -18 -32 -2 -14 -12 -43 -22 -65 -10 -22
-21 -61 -25 -88 -4 -26 -11 -50 -16 -53 -11 -7 -11 -35 0 -52 4 -7 50 -24 102
-38 244 -64 323 -83 327 -79 6 6 72 158 72 166 0 5 -382 240 -400 246 -3 1
-12 -2 -20 -5z"/>
<path d="M6477 6604 c-4 -4 -7 -24 -7 -45 0 -44 -2 -43 200 -64 74 -7 156 -17
182 -21 50 -7 53 -5 60 40 3 23 6 22 -207 60 -199 35 -220 38 -228 30z"/>
<path d="M1710 6441 c-5 -11 -10 -42 -10 -69 0 -27 -3 -52 -7 -56 -8 -7 -21
-131 -61 -553 -9 -100 -20 -185 -24 -189 -5 -4 -8 -26 -8 -48 -1 -107 -41
-186 -96 -186 -50 0 -59 20 -59 129 l0 96 -29 3 c-16 2 -39 -1 -50 -6 -12 -6
-73 -16 -136 -22 -63 -6 -124 -16 -135 -20 -11 -5 -36 -11 -55 -12 l-35 -3 0
-135 c0 -119 3 -143 25 -202 14 -37 39 -84 56 -105 29 -34 33 -36 60 -26 16 6
44 14 63 17 34 6 34 6 16 -14 -18 -20 -18 -21 1 -35 10 -8 49 -26 85 -41 63
-25 71 -26 235 -22 l169 3 78 40 c85 43 154 102 205 177 46 67 44 72 -35 65
-69 -6 -69 5 -2 17 44 8 63 41 74 126 4 30 11 69 16 85 5 17 17 91 25 165 8
74 24 214 35 310 33 287 51 500 45 515 -4 13 -40 15 -220 15 -203 0 -216 -1
-226 -19z"/>
<path d="M2238 6448 c-11 -9 -19 -44 -27 -118 -7 -58 -21 -188 -32 -290 -39
-364 -48 -467 -48 -580 0 -63 3 -121 8 -128 7 -11 19 -12 67 -2 33 6 66 14 74
17 8 4 49 14 90 24 41 10 105 25 141 34 l66 16 11 122 c7 67 21 208 32 312 11
105 29 269 38 365 10 96 22 183 26 193 5 10 3 23 -4 32 -10 12 -48 15 -219 15
-151 0 -212 -3 -223 -12z"/>
<path d="M3026 6444 c-9 -8 -16 -25 -17 -37 0 -12 -7 -80 -14 -152 -8 -71 -21
-204 -30 -295 -8 -91 -20 -185 -25 -210 -5 -25 -13 -87 -16 -139 l-7 -94 58 7
c32 4 63 10 69 15 6 5 43 14 81 21 39 7 75 16 80 20 6 4 43 14 83 21 39 7 72
17 72 21 0 4 6 8 14 8 14 0 20 34 32 190 4 47 10 90 14 95 4 6 13 89 20 185 7
96 16 180 20 185 13 17 18 153 7 164 -7 7 -85 11 -218 11 -175 0 -210 -2 -223
-16z"/>
<path d="M4028 6449 c-16 -9 -58 -86 -58 -104 0 -4 -7 -21 -15 -38 -40 -89
-145 -361 -145 -379 0 -19 4 -20 48 -13 26 4 52 10 57 15 6 4 42 13 80 20 39
7 75 16 80 20 6 4 42 13 80 20 39 7 75 16 80 20 6 4 43 13 83 20 39 7 72 16
72 20 0 3 36 12 80 19 44 8 83 17 86 22 3 5 16 9 29 9 13 0 26 4 29 8 7 11
-12 140 -24 167 -5 11 -14 51 -20 90 -6 38 -16 75 -22 82 -13 16 -493 18 -520
2z"/>
<path d="M4952 6448 c-7 -7 -12 -24 -12 -40 0 -15 -5 -49 -10 -75 -16 -76 -71
-624 -64 -635 7 -11 61 -10 68 0 3 5 38 14 78 21 40 8 78 17 83 21 6 4 42 13
80 20 39 7 75 16 80 20 6 4 42 13 80 20 39 7 75 16 80 20 6 4 28 10 50 14 70
12 155 40 155 51 0 6 -9 28 -20 50 -11 22 -20 45 -20 52 0 7 -4 13 -9 13 -4 0
-14 20 -21 45 -7 25 -17 45 -21 45 -5 0 -9 5 -9 12 0 13 -15 47 -97 215 -30
62 -61 120 -69 128 -13 12 -49 15 -203 15 -132 0 -191 -4 -199 -12z"/>
<path d="M5764 6446 c-6 -7 -17 -82 -24 -167 -7 -85 -16 -158 -20 -164 -12
-16 -23 -215 -12 -215 21 0 128 24 137 30 6 4 44 14 85 21 41 7 77 16 80 19 3
4 32 11 65 16 l60 9 7 50 c30 209 32 204 -56 279 -60 51 -68 69 -36 86 11 6
20 20 20 30 0 19 -7 20 -147 20 -107 -1 -151 -4 -159 -14z"/>
<path d="M6870 6293 c-9 -2 -81 -10 -160 -19 -80 -8 -166 -17 -192 -20 l-48
-6 0 -44 c0 -53 -11 -52 186 -18 82 14 167 28 189 31 62 9 75 18 66 50 -7 28
-16 33 -41 26z"/>
<path d="M8498 6294 c-5 -4 -8 -20 -8 -34 0 -26 3 -28 68 -38 37 -6 156 -27
266 -47 109 -20 209 -34 221 -31 16 4 26 16 30 37 13 58 12 59 -315 93 -74 8
-162 18 -195 21 -33 4 -63 4 -67 -1z"/>
<path d="M8442 6093 c-18 -43 -32 -83 -32 -89 0 -13 61 -53 278 -183 148 -88
202 -108 202 -76 0 8 4 15 8 15 13 0 138 257 130 266 -3 2 -38 13 -79 23 -227
59 -469 121 -472 121 -2 0 -18 -35 -35 -77z"/>
<path d="M6795 6133 c-49 -13 -119 -31 -154 -39 -35 -8 -88 -21 -118 -30 l-53
-15 0 -595 0 -594 370 0 370 0 0 210 c0 190 5 232 24 201 3 -4 26 -14 51 -21
25 -7 45 -17 45 -22 0 -5 12 -8 28 -6 29 3 28 2 107 298 25 95 28 89 -60 126
-44 19 -85 32 -91 30 -6 -2 -73 -108 -148 -234 l-138 -230 -65 -7 c-35 -4 -67
-5 -69 -2 -2 2 34 57 81 123 47 65 105 146 128 179 24 33 67 93 96 132 54 74
58 93 22 112 -17 10 -32 -5 -137 -137 -271 -340 -318 -397 -328 -404 -6 -4
-62 -8 -123 -8 l-113 0 0 89 c0 153 -20 127 281 367 271 215 289 235 254 264
-16 13 -73 -22 -342 -213 -130 -92 -182 -127 -187 -127 -8 0 -6 66 3 105 5 25
24 40 127 100 293 169 344 201 344 211 0 6 -16 46 -35 88 -40 88 -33 86 -170
49z"/>
<path d="M4460 6004 c-41 -7 -86 -18 -100 -23 -14 -6 -47 -13 -75 -17 -27 -4
-54 -10 -60 -14 -5 -5 -46 -13 -90 -20 -44 -7 -84 -15 -90 -20 -5 -4 -45 -13
-87 -19 -111 -18 -130 -30 -163 -104 -15 -34 -36 -81 -46 -104 -23 -51 -51
-115 -71 -163 -9 -19 -23 -51 -31 -70 -9 -19 -30 -69 -47 -110 -17 -41 -38
-90 -46 -107 -8 -18 -20 -48 -28 -65 -8 -18 -25 -58 -38 -88 -42 -93 -50 -118
-43 -129 9 -15 465 -15 465 0 0 5 9 29 19 52 11 23 22 59 26 80 4 20 11 37 15
37 5 0 10 10 12 23 3 22 4 22 188 22 l185 0 8 -75 c4 -41 13 -92 19 -112 l11
-38 369 0 c358 0 368 1 368 19 0 11 4 22 9 25 5 3 14 80 22 171 7 91 16 165
20 165 4 0 10 58 14 129 4 70 10 133 14 139 6 10 83 -146 237 -478 89 -192 51
-170 295 -170 l209 0 0 59 c0 33 4 62 9 65 5 3 14 87 22 186 7 99 16 180 19
180 4 0 13 80 20 178 7 97 16 179 20 182 10 7 19 139 11 145 -10 6 -145 -17
-151 -25 -3 -4 -41 -13 -85 -19 -44 -7 -82 -16 -85 -20 -3 -4 -27 -11 -55 -17
-40 -7 -52 -14 -63 -37 -13 -26 -15 -27 -27 -11 -12 16 -19 17 -96 5 -46 -7
-88 -16 -94 -19 -9 -7 -52 -17 -235 -57 -41 -9 -84 -20 -95 -25 -11 -5 -51
-14 -90 -21 -38 -6 -74 -14 -80 -18 -5 -3 -32 -10 -60 -16 -48 -10 -50 -12
-58 -50 -5 -22 -16 -119 -26 -215 -17 -166 -18 -172 -25 -115 -5 33 -12 65
-16 70 -4 6 -13 51 -20 100 -7 50 -16 95 -20 100 -4 6 -13 53 -20 105 -7 52
-16 100 -20 105 -4 6 -13 54 -20 108 -7 53 -17 100 -21 103 -5 3 -9 16 -9 30
0 28 -7 29 -120 8z m-201 -211 c10 -43 30 -179 31 -210 0 -9 -22 -13 -76 -13
-74 0 -75 1 -68 23 3 12 10 27 14 32 4 6 13 28 20 50 6 22 18 54 26 72 8 17
17 45 20 62 9 44 20 38 33 -16z"/>
<path d="M8340 5911 c-5 -11 -10 -22 -10 -25 0 -10 392 -316 406 -316 20 0 56
38 52 55 -4 19 -398 305 -420 305 -10 0 -22 -9 -28 -19z"/>
<path d="M8178 5746 c-10 -7 -18 -18 -18 -24 0 -7 24 -45 53 -86 28 -42 83
-121 121 -176 91 -132 99 -139 134 -119 50 27 41 45 -110 234 -79 98 -147 180
-153 182 -5 1 -18 -4 -27 -11z"/>
<path d="M8016 5655 c-27 -13 -57 -26 -67 -28 -11 -3 -19 -14 -19 -27 0 -33
90 -393 102 -407 12 -15 64 -17 72 -4 3 4 24 11 47 15 23 4 61 15 85 26 23 11
50 20 58 20 8 0 20 9 26 20 9 16 -8 51 -102 214 -125 217 -118 211 -202 171z"/>
<path d="M7536 5513 c-60 -324 -60 -325 -3 -339 24 -5 29 -2 41 27 7 19 17 77
20 129 4 52 11 128 17 169 10 68 9 76 -7 88 -40 29 -51 18 -68 -74z"/>
<path d="M7808 5593 c-20 -5 -22 -24 -9 -103 5 -31 14 -110 21 -175 15 -159
13 -155 61 -155 24 0 39 5 40 13 3 29 -4 79 -23 187 -11 63 -23 138 -27 165
-10 74 -16 80 -63 68z"/>
<path d="M3303 5573 c-18 -2 -33 -8 -33 -12 0 -4 -38 -13 -85 -20 -47 -7 -87
-17 -90 -21 -2 -4 -41 -13 -85 -20 -70 -11 -83 -16 -103 -42 -12 -16 -38 -48
-58 -71 -36 -40 -39 -41 -106 -45 -64 -4 -72 -2 -102 24 l-33 27 -81 -12 c-45
-7 -86 -16 -92 -19 -5 -4 -46 -14 -90 -24 -199 -41 -208 -45 -199 -87 9 -40
46 -121 56 -121 4 0 8 -6 8 -12 0 -17 83 -108 98 -108 7 0 12 -4 12 -10 0 -5
22 -21 50 -35 49 -25 51 -25 319 -25 l269 0 54 26 c129 64 259 206 303 332 10
26 21 56 26 67 13 30 29 122 29 171 0 47 3 46 -67 37z"/>
</g>
</svg>
